{
    "advts": [
        {
            "name": "Icon",
            "url": "res/images/Icon.png"
        }, {
            "name": "Vicks",
            "url": "res/images/vicks.jpg"
        },{
            "name": "Icon",
            "url": "res/images/Icon.png"
        }, {
            "name": "Vicks",
            "url": "res/images/vicks.jpg"
        },{
            "name": "Icon",
            "url": "res/images/Icon.png"
        }, {
            "name": "Vicks",
            "url": "res/images/vicks.jpg"
        }
    ]
}